0000.000 (0) Opened log file at time: Mon, 07 Nov 2016 20:23:43 +0000 on http://exceptionaire.co/nutrafitDivi
0000.002 (0) UpdraftPlus WordPress backup plugin (https://updraftplus.com): 2.12.23.1 WP: 4.5.4 PHP: 5.6.19 (cgi-fcgi, Linux exc.exceptionaire.co 2.6.32-642.1.1.el6.x86_64 #1 SMP Tue May 31 21:57:07 UTC 2016 x86_64) MySQL: 5.6.33 WPLANG: en_US Server: Apache/2.4.18 (Unix) OpenSSL/1.0.1e-fips mod_bwlimited/1.4 safe_mode: 0 max_execution_time: 900 memory_limit: 256M (used: 61.2M | 62.8M) multisite: N openssl: OpenSSL 1.0.1e-fips 11 Feb 2013 mcrypt: Y LANG:  ZipArchive::addFile: Y
0000.156 (0) Free space on disk containing Updraft's temporary directory: 114087.5 MB / Free disk space in account: 880691.6 MB (11.9 % used)
0000.160 (0) Tasks: Backup files: 1 (schedule: unset) Backup DB: 1 (schedule: unset)
0000.166 (0) Requesting semaphore lock (fd) (apparently not via scheduler)
0000.169 (0) Set semaphore last lock (fd) time to 2016-11-07 20:23:43
0000.172 (0) Semaphore lock (fd) complete
0000.179 (0) Backup run: resumption=0, nonce=e80ce4b3f8ef, begun at=1478550223 (0s ago), job type=backup
0000.182 (0) Scheduling a resumption (1) after 300 seconds (1478550523) in case this run gets aborted
0000.194 (0) Checking if we have a zip executable available
0000.196 (0) Testing: /usr/bin/zip
0000.203 (0) Output: zip warning: binziptest/test.zip not found or empty
0000.206 (0) Output: adding: binziptest/subdir1/	(in=0) (out=0) (stored 0%)
0000.208 (0) Output: adding: binziptest/subdir1/subdir2/	(in=0) (out=0) (stored 0%)
0000.209 (0) Output: adding: binziptest/subdir1/subdir2/test.html	(in=131) (out=107) (deflated 18%)
0000.211 (0) Output: total bytes=131, compressed=107 -> 18% savings
0000.218 (0) Output: adding: binziptest/subdir1/subdir2/test2.html	(in=138) (out=113) (deflated 18%)
0000.221 (0) Output: total bytes=269, compressed=220 -> 18% savings
0000.230 (0) Working binary zip found: /usr/bin/zip
0000.234 (0) Zip engine: found/will use a binary zip: /usr/bin/zip
0000.236 (0) Creation of backups of directories: beginning
0000.242 (0) Beginning creation of dump of plugins (split every: 400 MB)
0000.459 (0) Free disk space in account: 880691.6 MB (11.9 % used)
0001.544 (0) Total entities for the zip file: 744 directories, 4209 files (0 skipped as non-modified), 69.4 MB
0001.550 (0) Zip: backup_2016-11-08-0153_Fitlikethis_e80ce4b3f8ef-plugins.zip.tmp: 100 files added (on-disk size: 0 KB)
0001.554 (0) Zip: backup_2016-11-08-0153_Fitlikethis_e80ce4b3f8ef-plugins.zip.tmp: 200 files added (on-disk size: 0 KB)
0001.559 (0) Zip: backup_2016-11-08-0153_Fitlikethis_e80ce4b3f8ef-plugins.zip.tmp: 300 files added (on-disk size: 0 KB)
0001.563 (0) Zip: backup_2016-11-08-0153_Fitlikethis_e80ce4b3f8ef-plugins.zip.tmp: 400 files added (on-disk size: 0 KB)
0001.568 (0) Zip: backup_2016-11-08-0153_Fitlikethis_e80ce4b3f8ef-plugins.zip.tmp: 500 files added (on-disk size: 0 KB)
0001.569 (0) Adding batch to zip file (UpdraftPlus_BinZip): over 500 files added on this batch (14.4 MB, 4209 files batched, 501 (501) added so far); re-opening (prior size: 0 KB)
0003.193 (0) backup_2016-11-08-0153_Fitlikethis_e80ce4b3f8ef-plugins.zip.tmp: size is now: 6.80 MB
0003.199 (0) Zip: backup_2016-11-08-0153_Fitlikethis_e80ce4b3f8ef-plugins.zip.tmp: 600 files added (on-disk size: 7006.6 KB)
0003.204 (0) Zip: backup_2016-11-08-0153_Fitlikethis_e80ce4b3f8ef-plugins.zip.tmp: 700 files added (on-disk size: 7006.6 KB)
0003.208 (0) Zip: backup_2016-11-08-0153_Fitlikethis_e80ce4b3f8ef-plugins.zip.tmp: 800 files added (on-disk size: 7006.6 KB)
0003.213 (0) Zip: backup_2016-11-08-0153_Fitlikethis_e80ce4b3f8ef-plugins.zip.tmp: 900 files added (on-disk size: 7006.6 KB)
0003.217 (0) Zip: backup_2016-11-08-0153_Fitlikethis_e80ce4b3f8ef-plugins.zip.tmp: 1000 files added (on-disk size: 7006.6 KB)
0003.219 (0) Adding batch to zip file (UpdraftPlus_BinZip): over 500 files added on this batch (5.9 MB, 4209 files batched, 501 (1002) added so far); re-opening (prior size: 7006.6 KB)
0004.898 (0) backup_2016-11-08-0153_Fitlikethis_e80ce4b3f8ef-plugins.zip.tmp: size is now: 9.60 MB
0004.906 (0) Zip: backup_2016-11-08-0153_Fitlikethis_e80ce4b3f8ef-plugins.zip.tmp: 1100 files added (on-disk size: 9856.3 KB)
0004.911 (0) Zip: backup_2016-11-08-0153_Fitlikethis_e80ce4b3f8ef-plugins.zip.tmp: 1200 files added (on-disk size: 9856.3 KB)
0004.917 (0) Zip: backup_2016-11-08-0153_Fitlikethis_e80ce4b3f8ef-plugins.zip.tmp: 1300 files added (on-disk size: 9856.3 KB)
0004.922 (0) Zip: backup_2016-11-08-0153_Fitlikethis_e80ce4b3f8ef-plugins.zip.tmp: 1400 files added (on-disk size: 9856.3 KB)
0004.926 (0) Zip: backup_2016-11-08-0153_Fitlikethis_e80ce4b3f8ef-plugins.zip.tmp: 1500 files added (on-disk size: 9856.3 KB)
0004.928 (0) Adding batch to zip file (UpdraftPlus_BinZip): over 500 files added on this batch (12.1 MB, 4209 files batched, 501 (1503) added so far); re-opening (prior size: 9856.3 KB)
0006.674 (0) backup_2016-11-08-0153_Fitlikethis_e80ce4b3f8ef-plugins.zip.tmp: size is now: 14.90 MB
0006.687 (0) Zip: backup_2016-11-08-0153_Fitlikethis_e80ce4b3f8ef-plugins.zip.tmp: 1600 files added (on-disk size: 15281.3 KB)
0006.692 (0) Zip: backup_2016-11-08-0153_Fitlikethis_e80ce4b3f8ef-plugins.zip.tmp: 1700 files added (on-disk size: 15281.3 KB)
0006.696 (0) Zip: backup_2016-11-08-0153_Fitlikethis_e80ce4b3f8ef-plugins.zip.tmp: 1800 files added (on-disk size: 15281.3 KB)
0006.701 (0) Zip: backup_2016-11-08-0153_Fitlikethis_e80ce4b3f8ef-plugins.zip.tmp: 1900 files added (on-disk size: 15281.3 KB)
0006.706 (0) Zip: backup_2016-11-08-0153_Fitlikethis_e80ce4b3f8ef-plugins.zip.tmp: 2000 files added (on-disk size: 15281.3 KB)
0006.707 (0) Adding batch to zip file (UpdraftPlus_BinZip): over 500 files added on this batch (6.3 MB, 4209 files batched, 501 (2004) added so far); re-opening (prior size: 15281.3 KB)
0007.489 (0) Zip: backup_2016-11-08-0153_Fitlikethis_e80ce4b3f8ef-plugins.zip.tmp: 2100 files added (on-disk size: 17925.5 KB)
0007.495 (0) Zip: backup_2016-11-08-0153_Fitlikethis_e80ce4b3f8ef-plugins.zip.tmp: 2200 files added (on-disk size: 17925.5 KB)
0007.500 (0) Zip: backup_2016-11-08-0153_Fitlikethis_e80ce4b3f8ef-plugins.zip.tmp: 2300 files added (on-disk size: 17925.5 KB)
0007.505 (0) Zip: backup_2016-11-08-0153_Fitlikethis_e80ce4b3f8ef-plugins.zip.tmp: 2400 files added (on-disk size: 17925.5 KB)
0007.510 (0) Zip: backup_2016-11-08-0153_Fitlikethis_e80ce4b3f8ef-plugins.zip.tmp: 2500 files added (on-disk size: 17925.5 KB)
0007.512 (0) Adding batch to zip file (UpdraftPlus_BinZip): over 500 files added on this batch (5.8 MB, 4209 files batched, 501 (2505) added so far); re-opening (prior size: 17925.5 KB)
0009.229 (0) Zip: backup_2016-11-08-0153_Fitlikethis_e80ce4b3f8ef-plugins.zip.tmp: 2600 files added (on-disk size: 19684.2 KB)
0009.234 (0) Zip: backup_2016-11-08-0153_Fitlikethis_e80ce4b3f8ef-plugins.zip.tmp: 2700 files added (on-disk size: 19684.2 KB)
0009.239 (0) Zip: backup_2016-11-08-0153_Fitlikethis_e80ce4b3f8ef-plugins.zip.tmp: 2800 files added (on-disk size: 19684.2 KB)
0009.243 (0) Zip: backup_2016-11-08-0153_Fitlikethis_e80ce4b3f8ef-plugins.zip.tmp: 2900 files added (on-disk size: 19684.2 KB)
0009.248 (0) Zip: backup_2016-11-08-0153_Fitlikethis_e80ce4b3f8ef-plugins.zip.tmp: 3000 files added (on-disk size: 19684.2 KB)
0009.251 (0) Adding batch to zip file (UpdraftPlus_BinZip): over 500 files added on this batch (13.7 MB, 4209 files batched, 501 (3006) added so far); re-opening (prior size: 19684.2 KB)
0010.999 (0) backup_2016-11-08-0153_Fitlikethis_e80ce4b3f8ef-plugins.zip.tmp: size is now: 24.70 MB
0011.007 (0) Zip: backup_2016-11-08-0153_Fitlikethis_e80ce4b3f8ef-plugins.zip.tmp: 3100 files added (on-disk size: 25275.5 KB)
0011.012 (0) Zip: backup_2016-11-08-0153_Fitlikethis_e80ce4b3f8ef-plugins.zip.tmp: 3200 files added (on-disk size: 25275.5 KB)
0011.017 (0) Zip: backup_2016-11-08-0153_Fitlikethis_e80ce4b3f8ef-plugins.zip.tmp: 3300 files added (on-disk size: 25275.5 KB)
0011.022 (0) Zip: backup_2016-11-08-0153_Fitlikethis_e80ce4b3f8ef-plugins.zip.tmp: 3400 files added (on-disk size: 25275.5 KB)
0011.027 (0) Zip: backup_2016-11-08-0153_Fitlikethis_e80ce4b3f8ef-plugins.zip.tmp: 3500 files added (on-disk size: 25275.5 KB)
0011.029 (0) Adding batch to zip file (UpdraftPlus_BinZip): over 500 files added on this batch (2.8 MB, 4209 files batched, 501 (3507) added so far); re-opening (prior size: 25275.5 KB)
0011.223 (0) Zip: backup_2016-11-08-0153_Fitlikethis_e80ce4b3f8ef-plugins.zip.tmp: 3600 files added (on-disk size: 26277.4 KB)
0011.228 (0) Zip: backup_2016-11-08-0153_Fitlikethis_e80ce4b3f8ef-plugins.zip.tmp: 3700 files added (on-disk size: 26277.4 KB)
0011.234 (0) Zip: backup_2016-11-08-0153_Fitlikethis_e80ce4b3f8ef-plugins.zip.tmp: 3800 files added (on-disk size: 26277.4 KB)
0011.239 (0) Zip: backup_2016-11-08-0153_Fitlikethis_e80ce4b3f8ef-plugins.zip.tmp: 3900 files added (on-disk size: 26277.4 KB)
0011.245 (0) Zip: backup_2016-11-08-0153_Fitlikethis_e80ce4b3f8ef-plugins.zip.tmp: 4000 files added (on-disk size: 26277.4 KB)
0011.247 (0) Adding batch to zip file (UpdraftPlus_BinZip): over 500 files added on this batch (3.3 MB, 4209 files batched, 501 (4008) added so far); re-opening (prior size: 26277.4 KB)
0011.486 (0) Zip: backup_2016-11-08-0153_Fitlikethis_e80ce4b3f8ef-plugins.zip.tmp: 4100 files added (on-disk size: 27523.1 KB)
0011.491 (0) Zip: backup_2016-11-08-0153_Fitlikethis_e80ce4b3f8ef-plugins.zip.tmp: 4200 files added (on-disk size: 27523.1 KB)
0012.020 (0) Created plugins zip (0) - 31596.3 KB in 11.6 s (2733.7 KB/s) (SHA1 checksum: 6d052891c6b4493d9962e18f5eb4d91a4fb5d746)
0012.024 (0) Beginning creation of dump of themes (split every: 400 MB)
0012.172 (0) Free disk space in account: 880691.6 MB (11.9 % used)
0012.293 (0) Total entities for the zip file: 84 directories, 790 files (0 skipped as non-modified), 27.2 MB
0012.298 (0) Zip: backup_2016-11-08-0153_Fitlikethis_e80ce4b3f8ef-themes.zip.tmp: 100 files added (on-disk size: 0 KB)
0012.304 (0) Zip: backup_2016-11-08-0153_Fitlikethis_e80ce4b3f8ef-themes.zip.tmp: 200 files added (on-disk size: 0 KB)
0012.309 (0) Zip: backup_2016-11-08-0153_Fitlikethis_e80ce4b3f8ef-themes.zip.tmp: 300 files added (on-disk size: 0 KB)
0012.315 (0) Zip: backup_2016-11-08-0153_Fitlikethis_e80ce4b3f8ef-themes.zip.tmp: 400 files added (on-disk size: 0 KB)
0012.320 (0) Zip: backup_2016-11-08-0153_Fitlikethis_e80ce4b3f8ef-themes.zip.tmp: 500 files added (on-disk size: 0 KB)
0012.322 (0) Adding batch to zip file (UpdraftPlus_BinZip): over 500 files added on this batch (23.2 MB, 790 files batched, 501 (501) added so far); re-opening (prior size: 0 KB)
0014.474 (0) backup_2016-11-08-0153_Fitlikethis_e80ce4b3f8ef-themes.zip.tmp: size is now: 6.80 MB
0014.486 (0) Zip: backup_2016-11-08-0153_Fitlikethis_e80ce4b3f8ef-themes.zip.tmp: 600 files added (on-disk size: 6940 KB)
0014.491 (0) Zip: backup_2016-11-08-0153_Fitlikethis_e80ce4b3f8ef-themes.zip.tmp: 700 files added (on-disk size: 6940 KB)
0015.374 (0) backup_2016-11-08-0153_Fitlikethis_e80ce4b3f8ef-themes.zip.tmp: size is now: 8.30 MB
0015.417 (0) Created themes zip (0) - 8547.5 KB in 3.2 s (2637 KB/s) (SHA1 checksum: 7bcac796d0dd13ea2274f45db9ee37f7c812da82)
0015.421 (0) Exclusion option setting (uploads): backup*,*backups,backwpup*,wp-clone,snapshots
0015.423 (0) Looking for candidates to back up in: /home/etpl2012/public_html/nutrafitDivi/wp-content/uploads
0015.424 (0) finding files: wp-migrate-db: adding to list (1)
0015.426 (0) finding files: ultimatemember: adding to list (2)
0015.427 (0) finding files: userpro: adding to list (3)
0015.429 (0) finding files: et_temp: adding to list (4)
0015.431 (0) finding files: 2016: adding to list (5)
0015.433 (0) Beginning creation of dump of uploads (split every: 400 MB)
0015.583 (0) Free disk space in account: 880691.6 MB (11.9 % used)
0015.709 (0) Total entities for the zip file: 18 directories, 657 files (0 skipped as non-modified), 104.3 MB
0015.715 (0) Zip: backup_2016-11-08-0153_Fitlikethis_e80ce4b3f8ef-uploads.zip.tmp: 100 files added (on-disk size: 0 KB)
0015.718 (0) Adding batch to zip file (UpdraftPlus_BinZip): over 25 MB added on this batch (25.4 MB, 657 files batched, 120 (120) added so far); re-opening (prior size: 0 KB)
0016.397 (0) backup_2016-11-08-0153_Fitlikethis_e80ce4b3f8ef-uploads.zip.tmp: size is now: 25.50 MB
0016.408 (0) A useful amount of data was added after this amount of zip processing: 1.2 s (normalised: 1.2 s, rate: 21486.7 KB/s)
0016.414 (0) Performance is good - will increase the amount of data we attempt to batch (time=1.2123041153, normalised_time=1.19143402208, max_time=-1, data points known=0, old_max_bytes=26214400, new_max_bytes=132014360)
0016.429 (0) Zip: backup_2016-11-08-0153_Fitlikethis_e80ce4b3f8ef-uploads.zip.tmp: 200 files added (on-disk size: 26076.2 KB)
0016.443 (0) Zip: backup_2016-11-08-0153_Fitlikethis_e80ce4b3f8ef-uploads.zip.tmp: 300 files added (on-disk size: 26076.2 KB)
0016.448 (0) Zip: backup_2016-11-08-0153_Fitlikethis_e80ce4b3f8ef-uploads.zip.tmp: 400 files added (on-disk size: 26076.2 KB)
0016.453 (0) Zip: backup_2016-11-08-0153_Fitlikethis_e80ce4b3f8ef-uploads.zip.tmp: 500 files added (on-disk size: 26076.2 KB)
0016.458 (0) Zip: backup_2016-11-08-0153_Fitlikethis_e80ce4b3f8ef-uploads.zip.tmp: 600 files added (on-disk size: 26076.2 KB)
0016.461 (0) Adding batch to zip file (UpdraftPlus_BinZip): over 500 files added on this batch (77.2 MB, 657 files batched, 501 (621) added so far); re-opening (prior size: 26076.2 KB)
0021.157 (0) backup_2016-11-08-0153_Fitlikethis_e80ce4b3f8ef-uploads.zip.tmp: size is now: 102.80 MB
0021.970 (0) Created uploads zip (0) - 106910.1 KB in 6.4 s (16751.7 KB/s) (SHA1 checksum: fa31277bde1346230926534b1fc6206b1690de4e)
0021.974 (0) Beginning backup of other directories found in the content directory (index: 0)
0021.976 (0) Exclusion option setting (others): upgrade,cache,updraft,backup*,*backups,mysql.sql,debug.log
0021.978 (0) Looking for candidates to back up in: /home/etpl2012/public_html/nutrafitDivi/wp-content
0021.979 (0) finding files: error_log: adding to list (1)
0021.981 (0) finding files: languages: adding to list (2)
0021.982 (0) finding files: uploads: skipping: this is the uploads directory
0021.984 (0) finding files: updraft: skipping: this is the updraft directory
0021.985 (0) finding files: index.php: adding to list (3)
0021.987 (0) finding files: themes: skipping: this is the themes directory
0021.988 (0) finding files: upgrade: skipping: excluded by options
0021.989 (0) finding files: plugins: skipping: this is the plugins directory
0022.133 (0) Free disk space in account: 880691.6 MB (11.9 % used)
0022.141 (0) Total entities for the zip file: 2 directories, 2 files (0 skipped as non-modified), 0 MB
0022.152 (0) backup_2016-11-08-0153_Fitlikethis_e80ce4b3f8ef-others.zip.tmp: size is now: 0.00 MB
0022.168 (0) Created others zip (0) - 0.8 KB in 0 s (27.7 KB/s) (SHA1 checksum: 99be215ad62e52b1588da267ba1751793e47c7c0)
0022.183 (0) Saving backup status to database (elements: 8)
0022.191 (0) Beginning creation of database dump (WordPress DB)
0022.224 (0) Testing: /usr/bin/mysqldump
0022.341 (0) Output: /*!40103 SET @OLD_TIME_ZONE=@@TIME_ZONE */;\n/*!40103 SET TIME_ZONE='+00:00' */;\n/*!40014 SET @OLD_UNIQUE_CHECKS=@@UNIQUE_CHECKS, UNIQUE_CHECKS=0 */;\n/*!40014 SET @OLD_FOREIGN_KEY_CHECKS=@@FOREIGN_KEY_CHECKS, FOREIGN_KEY_CHECKS=0 */;\n/*!40101 SET @OLD_SQL_MODE=@@SQL_MODE, SQL_MODE='NO_AUTO_VALUE_ON_ZERO' */;\n/*!40111 SET @OLD_SQL_NOTES=@@SQL_NOTES, SQL_NOTES=0 */;\nDROP TABLE IF EXISTS `nu_options`;\n/*!40101 SET @saved_cs_client     = @@character_set_client */;\n/*!40101 SET character_set_client = utf8 */;\nCRE (truncated - 1191 bytes total)
0022.345 (0) Working binary mysqldump found: /usr/bin/mysqldump
0022.596 (0) Table nu_options: Total expected rows (approximate): 2191
0022.701 (0) Table nu_options: Total rows added: 2187 in 0.10 seconds
0022.703 (0) Table nu_options: finishing file (backup_2016-11-08-0153_Fitlikethis_e80ce4b3f8ef-db-table-nu_options.table.gz - 192 KB)
0022.709 (0) Table nu_users: Total expected rows (approximate): 237
0022.721 (0) Table nu_users: Total rows added: 237 in 0.01 seconds
0022.723 (0) Table nu_users: finishing file (backup_2016-11-08-0153_Fitlikethis_e80ce4b3f8ef-db-table-nu_users.table.gz - 12.7 KB)
0022.730 (0) Table nu_usermeta: Total expected rows (approximate): 2710
0022.784 (0) Table nu_usermeta: Total rows added: 2710 in 0.05 seconds
0022.786 (0) Table nu_usermeta: finishing file (backup_2016-11-08-0153_Fitlikethis_e80ce4b3f8ef-db-table-nu_usermeta.table.gz - 32.4 KB)
0022.791 (0) Table nu_commentmeta: Total expected rows (approximate): 0
0022.794 (0) Table nu_commentmeta: Total rows added: 0 in 0.00 seconds
0022.796 (0) Table nu_commentmeta: finishing file (backup_2016-11-08-0153_Fitlikethis_e80ce4b3f8ef-db-table-nu_commentmeta.table.gz - 0.4 KB)
0022.801 (0) Table nu_comments: Total expected rows (approximate): 2
0022.807 (0) Table nu_comments: Total rows added: 2 in 0.00 seconds
0022.809 (0) Table nu_comments: finishing file (backup_2016-11-08-0153_Fitlikethis_e80ce4b3f8ef-db-table-nu_comments.table.gz - 0.8 KB)
0022.817 (0) Table nu_links: Total expected rows (approximate): 0
0022.821 (0) Table nu_links: Total rows added: 0 in 0.00 seconds
0022.823 (0) Table nu_links: finishing file (backup_2016-11-08-0153_Fitlikethis_e80ce4b3f8ef-db-table-nu_links.table.gz - 0.4 KB)
0022.832 (0) Table nu_postmeta: Total expected rows (approximate): 3063
0022.906 (0) Table nu_postmeta: Total rows added: 3063 in 0.07 seconds
0022.908 (0) Table nu_postmeta: finishing file (backup_2016-11-08-0153_Fitlikethis_e80ce4b3f8ef-db-table-nu_postmeta.table.gz - 37 KB)
0022.915 (0) Table nu_posts: Total expected rows (approximate): 705
0023.136 (0) Table nu_posts: Total rows added: 705 in 0.22 seconds
0023.138 (0) Table nu_posts: finishing file (backup_2016-11-08-0153_Fitlikethis_e80ce4b3f8ef-db-table-nu_posts.table.gz - 108.7 KB)
0023.166 (0) Table nu_signups: Total expected rows (approximate): 0
0023.171 (0) Table nu_signups: Total rows added: 0 in 0.00 seconds
0023.173 (0) Table nu_signups: finishing file (backup_2016-11-08-0153_Fitlikethis_e80ce4b3f8ef-db-table-nu_signups.table.gz - 0.5 KB)
0023.180 (0) Table nu_term_relationships: Total expected rows (approximate): 51
0023.183 (0) Table nu_term_relationships: Total rows added: 51 in 0.00 seconds
0023.185 (0) Table nu_term_relationships: finishing file (backup_2016-11-08-0153_Fitlikethis_e80ce4b3f8ef-db-table-nu_term_relationships.table.gz - 0.5 KB)
0023.191 (0) Table nu_term_taxonomy: Total expected rows (approximate): 12
0023.196 (0) Table nu_term_taxonomy: Total rows added: 12 in 0.00 seconds
0023.197 (0) Table nu_term_taxonomy: finishing file (backup_2016-11-08-0153_Fitlikethis_e80ce4b3f8ef-db-table-nu_term_taxonomy.table.gz - 0.5 KB)
0023.203 (0) Table nu_termmeta: Total expected rows (approximate): 0
0023.206 (0) Table nu_termmeta: Total rows added: 0 in 0.00 seconds
0023.207 (0) Table nu_termmeta: finishing file (backup_2016-11-08-0153_Fitlikethis_e80ce4b3f8ef-db-table-nu_termmeta.table.gz - 0.4 KB)
0023.213 (0) Table nu_terms: Total expected rows (approximate): 12
0023.218 (0) Table nu_terms: Total rows added: 12 in 0.00 seconds
0023.223 (0) Table nu_terms: finishing file (backup_2016-11-08-0153_Fitlikethis_e80ce4b3f8ef-db-table-nu_terms.table.gz - 0.5 KB)
0023.229 (0) Table nu_AnythingPopup: Total expected rows (approximate): 3
0023.232 (0) Table nu_AnythingPopup: Total rows added: 3 in 0.00 seconds
0023.234 (0) Table nu_AnythingPopup: finishing file (backup_2016-11-08-0153_Fitlikethis_e80ce4b3f8ef-db-table-nu_AnythingPopup.table.gz - 0.5 KB)
0023.240 (0) Table nu_customcalories: Total expected rows (approximate): 12
0023.243 (0) Table nu_customcalories: Total rows added: 16 in 0.00 seconds
0023.245 (0) Table nu_customcalories: finishing file (backup_2016-11-08-0153_Fitlikethis_e80ce4b3f8ef-db-table-nu_customcalories.table.gz - 0.5 KB)
0023.250 (0) Table nu_custompro: Total expected rows (approximate): 0
0023.253 (0) Table nu_custompro: Total rows added: 0 in 0.00 seconds
0023.255 (0) Table nu_custompro: finishing file (backup_2016-11-08-0153_Fitlikethis_e80ce4b3f8ef-db-table-nu_custompro.table.gz - 0.3 KB)
0023.261 (0) Table nu_fep_messages: Total expected rows (approximate): 2
0023.274 (0) Table nu_fep_messages: Total rows added: 11 in 0.01 seconds
0023.275 (0) Table nu_fep_messages: finishing file (backup_2016-11-08-0153_Fitlikethis_e80ce4b3f8ef-db-table-nu_fep_messages.table.gz - 1 KB)
0023.282 (0) Table nu_fep_meta: Total expected rows (approximate): 0
0023.285 (0) Table nu_fep_meta: Total rows added: 0 in 0.00 seconds
0023.287 (0) Table nu_fep_meta: finishing file (backup_2016-11-08-0153_Fitlikethis_e80ce4b3f8ef-db-table-nu_fep_meta.table.gz - 0.3 KB)
0023.292 (0) Table nu_gf_addon_feed: Total expected rows (approximate): 7
0023.295 (0) Table nu_gf_addon_feed: Total rows added: 7 in 0.00 seconds
0023.297 (0) Table nu_gf_addon_feed: finishing file (backup_2016-11-08-0153_Fitlikethis_e80ce4b3f8ef-db-table-nu_gf_addon_feed.table.gz - 1.2 KB)
0023.303 (0) Table nu_gf_addon_payment_callback: Total expected rows (approximate): 0
0023.305 (0) Table nu_gf_addon_payment_callback: Total rows added: 0 in 0.00 seconds
0023.307 (0) Table nu_gf_addon_payment_callback: finishing file (backup_2016-11-08-0153_Fitlikethis_e80ce4b3f8ef-db-table-nu_gf_addon_payment_callback.table.gz - 0.4 KB)
0023.318 (0) Table nu_gf_addon_payment_transaction: Total expected rows (approximate): 16
0023.335 (0) Table nu_gf_addon_payment_transaction: Total rows added: 16 in 0.01 seconds
0023.336 (0) Table nu_gf_addon_payment_transaction: finishing file (backup_2016-11-08-0153_Fitlikethis_e80ce4b3f8ef-db-table-nu_gf_addon_payment_transaction.table.gz - 0.8 KB)
0023.343 (0) Table nu_ihc_coupons: Total expected rows (approximate): 0
0023.366 (0) Table nu_ihc_coupons: Total rows added: 1 in 0.02 seconds
0023.368 (0) Table nu_ihc_coupons: finishing file (backup_2016-11-08-0153_Fitlikethis_e80ce4b3f8ef-db-table-nu_ihc_coupons.table.gz - 0.5 KB)
0023.374 (0) Table nu_ihc_debug_payments: Total expected rows (approximate): 4
0023.378 (0) Table nu_ihc_debug_payments: Total rows added: 5 in 0.00 seconds
0023.380 (0) Table nu_ihc_debug_payments: finishing file (backup_2016-11-08-0153_Fitlikethis_e80ce4b3f8ef-db-table-nu_ihc_debug_payments.table.gz - 1.3 KB)
0023.387 (0) Table nu_ihc_notifications: Total expected rows (approximate): 3
0023.391 (0) Table nu_ihc_notifications: Total rows added: 3 in 0.00 seconds
0023.393 (0) Table nu_ihc_notifications: finishing file (backup_2016-11-08-0153_Fitlikethis_e80ce4b3f8ef-db-table-nu_ihc_notifications.table.gz - 0.8 KB)
0023.398 (0) Table nu_ihc_user_levels: Total expected rows (approximate): 9
0023.402 (0) Table nu_ihc_user_levels: Total rows added: 14 in 0.00 seconds
0023.404 (0) Table nu_ihc_user_levels: finishing file (backup_2016-11-08-0153_Fitlikethis_e80ce4b3f8ef-db-table-nu_ihc_user_levels.table.gz - 0.6 KB)
0023.411 (0) Table nu_indeed_members_payments: Total expected rows (approximate): 3
0023.415 (0) Table nu_indeed_members_payments: Total rows added: 4 in 0.00 seconds
0023.417 (0) Table nu_indeed_members_payments: finishing file (backup_2016-11-08-0153_Fitlikethis_e80ce4b3f8ef-db-table-nu_indeed_members_payments.table.gz - 1.7 KB)
0023.423 (0) Table nu_login_log: Total expected rows (approximate): 24
0023.441 (0) Table nu_login_log: Total rows added: 24 in 0.02 seconds
0023.443 (0) Table nu_login_log: finishing file (backup_2016-11-08-0153_Fitlikethis_e80ce4b3f8ef-db-table-nu_login_log.table.gz - 0.6 KB)
0023.450 (0) Table nu_payments: Total expected rows (approximate): 16
0023.456 (0) Table nu_payments: Total rows added: 16 in 0.00 seconds
0023.458 (0) Table nu_payments: finishing file (backup_2016-11-08-0153_Fitlikethis_e80ce4b3f8ef-db-table-nu_payments.table.gz - 1.1 KB)
0023.463 (0) Table nu_pmpro_discount_codes: Total expected rows (approximate): 0
0023.478 (0) Table nu_pmpro_discount_codes: Total rows added: 0 in 0.01 seconds
0023.480 (0) Table nu_pmpro_discount_codes: finishing file (backup_2016-11-08-0153_Fitlikethis_e80ce4b3f8ef-db-table-nu_pmpro_discount_codes.table.gz - 0.3 KB)
0023.486 (0) Table nu_pmpro_discount_codes_levels: Total expected rows (approximate): 0
0023.491 (0) Table nu_pmpro_discount_codes_levels: Total rows added: 0 in 0.00 seconds
0023.493 (0) Table nu_pmpro_discount_codes_levels: finishing file (backup_2016-11-08-0153_Fitlikethis_e80ce4b3f8ef-db-table-nu_pmpro_discount_codes_levels.table.gz - 0.5 KB)
0023.498 (0) Table nu_pmpro_discount_codes_uses: Total expected rows (approximate): 0
0023.502 (0) Table nu_pmpro_discount_codes_uses: Total rows added: 0 in 0.00 seconds
0023.504 (0) Table nu_pmpro_discount_codes_uses: finishing file (backup_2016-11-08-0153_Fitlikethis_e80ce4b3f8ef-db-table-nu_pmpro_discount_codes_uses.table.gz - 0.3 KB)
0023.512 (0) Table nu_pmpro_membership_levelmeta: Total expected rows (approximate): 0
0023.517 (0) Table nu_pmpro_membership_levelmeta: Total rows added: 0 in 0.00 seconds
0023.519 (0) Table nu_pmpro_membership_levelmeta: finishing file (backup_2016-11-08-0153_Fitlikethis_e80ce4b3f8ef-db-table-nu_pmpro_membership_levelmeta.table.gz - 0.3 KB)
0023.525 (0) Table nu_pmpro_membership_levels: Total expected rows (approximate): 0
0023.529 (0) Table nu_pmpro_membership_levels: Total rows added: 0 in 0.00 seconds
0023.531 (0) Table nu_pmpro_membership_levels: finishing file (backup_2016-11-08-0153_Fitlikethis_e80ce4b3f8ef-db-table-nu_pmpro_membership_levels.table.gz - 0.5 KB)
0023.538 (0) Table nu_pmpro_membership_orders: Total expected rows (approximate): 0
0023.542 (0) Table nu_pmpro_membership_orders: Total rows added: 0 in 0.00 seconds
0023.544 (0) Table nu_pmpro_membership_orders: finishing file (backup_2016-11-08-0153_Fitlikethis_e80ce4b3f8ef-db-table-nu_pmpro_membership_orders.table.gz - 0.7 KB)
0023.550 (0) Table nu_pmpro_memberships_categories: Total expected rows (approximate): 0
0023.555 (0) Table nu_pmpro_memberships_categories: Total rows added: 0 in 0.00 seconds
0023.557 (0) Table nu_pmpro_memberships_categories: finishing file (backup_2016-11-08-0153_Fitlikethis_e80ce4b3f8ef-db-table-nu_pmpro_memberships_categories.table.gz - 0.3 KB)
0023.564 (0) Table nu_pmpro_memberships_pages: Total expected rows (approximate): 0
0023.568 (0) Table nu_pmpro_memberships_pages: Total rows added: 0 in 0.00 seconds
0023.570 (0) Table nu_pmpro_memberships_pages: finishing file (backup_2016-11-08-0153_Fitlikethis_e80ce4b3f8ef-db-table-nu_pmpro_memberships_pages.table.gz - 0.3 KB)
0023.578 (0) Table nu_pmpro_memberships_users: Total expected rows (approximate): 0
0023.582 (0) Table nu_pmpro_memberships_users: Total rows added: 0 in 0.00 seconds
0023.592 (0) Table nu_pmpro_memberships_users: finishing file (backup_2016-11-08-0153_Fitlikethis_e80ce4b3f8ef-db-table-nu_pmpro_memberships_users.table.gz - 0.5 KB)
0023.607 (0) Table nu_popover_ip_cache: Total expected rows (approximate): 0
0023.612 (0) Table nu_popover_ip_cache: Total rows added: 0 in 0.00 seconds
0023.616 (0) Table nu_popover_ip_cache: finishing file (backup_2016-11-08-0153_Fitlikethis_e80ce4b3f8ef-db-table-nu_popover_ip_cache.table.gz - 0.3 KB)
0023.628 (0) Table nu_rg_form: Total expected rows (approximate): 6
0023.634 (0) Table nu_rg_form: Total rows added: 6 in 0.00 seconds
0023.638 (0) Table nu_rg_form: finishing file (backup_2016-11-08-0153_Fitlikethis_e80ce4b3f8ef-db-table-nu_rg_form.table.gz - 0.5 KB)
0023.649 (0) Table nu_rg_form_meta: Total expected rows (approximate): 6
0023.705 (0) Table nu_rg_form_meta: Total rows added: 6 in 0.05 seconds
0023.707 (0) Table nu_rg_form_meta: finishing file (backup_2016-11-08-0153_Fitlikethis_e80ce4b3f8ef-db-table-nu_rg_form_meta.table.gz - 2.7 KB)
0023.715 (0) Table nu_rg_form_view: Total expected rows (approximate): 66
0023.737 (0) Table nu_rg_form_view: Total rows added: 66 in 0.02 seconds
0023.739 (0) Table nu_rg_form_view: finishing file (backup_2016-11-08-0153_Fitlikethis_e80ce4b3f8ef-db-table-nu_rg_form_view.table.gz - 1.2 KB)
0023.745 (0) Table nu_rg_incomplete_submissions: Total expected rows (approximate): 0
0023.763 (0) Table nu_rg_incomplete_submissions: Total rows added: 0 in 0.02 seconds
0023.765 (0) Table nu_rg_incomplete_submissions: finishing file (backup_2016-11-08-0153_Fitlikethis_e80ce4b3f8ef-db-table-nu_rg_incomplete_submissions.table.gz - 0.4 KB)
0023.771 (0) Table nu_rg_lead: Total expected rows (approximate): 22
0023.788 (0) Table nu_rg_lead: Total rows added: 22 in 0.02 seconds
0023.791 (0) Table nu_rg_lead: finishing file (backup_2016-11-08-0153_Fitlikethis_e80ce4b3f8ef-db-table-nu_rg_lead.table.gz - 1.6 KB)
0023.797 (0) Table nu_rg_lead_detail: Total expected rows (approximate): 92
0023.836 (0) Table nu_rg_lead_detail: Total rows added: 92 in 0.04 seconds
0023.838 (0) Table nu_rg_lead_detail: finishing file (backup_2016-11-08-0153_Fitlikethis_e80ce4b3f8ef-db-table-nu_rg_lead_detail.table.gz - 1.1 KB)
0023.844 (0) Table nu_rg_lead_detail_long: Total expected rows (approximate): 0
0023.847 (0) Table nu_rg_lead_detail_long: Total rows added: 0 in 0.00 seconds
0023.849 (0) Table nu_rg_lead_detail_long: finishing file (backup_2016-11-08-0153_Fitlikethis_e80ce4b3f8ef-db-table-nu_rg_lead_detail_long.table.gz - 0.3 KB)
0023.854 (0) Table nu_rg_lead_meta: Total expected rows (approximate): 76
0023.903 (0) Table nu_rg_lead_meta: Total rows added: 76 in 0.05 seconds
0023.905 (0) Table nu_rg_lead_meta: finishing file (backup_2016-11-08-0153_Fitlikethis_e80ce4b3f8ef-db-table-nu_rg_lead_meta.table.gz - 1.2 KB)
0023.911 (0) Table nu_rg_lead_notes: Total expected rows (approximate): 17
0023.971 (0) Table nu_rg_lead_notes: Total rows added: 17 in 0.06 seconds
0023.973 (0) Table nu_rg_lead_notes: finishing file (backup_2016-11-08-0153_Fitlikethis_e80ce4b3f8ef-db-table-nu_rg_lead_notes.table.gz - 0.9 KB)
0023.982 (0) Table nu_rg_paypalpro: Total expected rows (approximate): 0
0023.986 (0) Table nu_rg_paypalpro: Total rows added: 0 in 0.00 seconds
0023.988 (0) Table nu_rg_paypalpro: finishing file (backup_2016-11-08-0153_Fitlikethis_e80ce4b3f8ef-db-table-nu_rg_paypalpro.table.gz - 0.3 KB)
0023.994 (0) Table nu_rg_paypalpro_transaction: Total expected rows (approximate): 0
0023.998 (0) Table nu_rg_paypalpro_transaction: Total rows added: 0 in 0.00 seconds
0024.000 (0) Table nu_rg_paypalpro_transaction: finishing file (backup_2016-11-08-0153_Fitlikethis_e80ce4b3f8ef-db-table-nu_rg_paypalpro_transaction.table.gz - 0.5 KB)
0024.007 (0) Table nu_social_users: Total expected rows (approximate): 10
0024.012 (0) Table nu_social_users: Total rows added: 24 in 0.00 seconds
0024.014 (0) Table nu_social_users: finishing file (backup_2016-11-08-0153_Fitlikethis_e80ce4b3f8ef-db-table-nu_social_users.table.gz - 0.6 KB)
0024.022 (0) Table nu_weight_tracker: Total expected rows (approximate): 8
0024.029 (0) Table nu_weight_tracker: Total rows added: 18 in 0.00 seconds
0024.031 (0) Table nu_weight_tracker: finishing file (backup_2016-11-08-0153_Fitlikethis_e80ce4b3f8ef-db-table-nu_weight_tracker.table.gz - 0.7 KB)
0024.040 (0) backup_2016-11-08-0153_Fitlikethis_e80ce4b3f8ef-db-table-nu_options.table.gz (1/51): adding to final database dump
0024.091 (0) backup_2016-11-08-0153_Fitlikethis_e80ce4b3f8ef-db-table-nu_users.table.gz (2/51): adding to final database dump
0024.096 (0) backup_2016-11-08-0153_Fitlikethis_e80ce4b3f8ef-db-table-nu_usermeta.table.gz (3/51): adding to final database dump
0024.116 (0) backup_2016-11-08-0153_Fitlikethis_e80ce4b3f8ef-db-table-nu_commentmeta.table.gz (4/51): adding to final database dump
0024.119 (0) backup_2016-11-08-0153_Fitlikethis_e80ce4b3f8ef-db-table-nu_comments.table.gz (5/51): adding to final database dump
0024.124 (0) backup_2016-11-08-0153_Fitlikethis_e80ce4b3f8ef-db-table-nu_links.table.gz (6/51): adding to final database dump
0024.127 (0) backup_2016-11-08-0153_Fitlikethis_e80ce4b3f8ef-db-table-nu_postmeta.table.gz (7/51): adding to final database dump
0024.153 (0) backup_2016-11-08-0153_Fitlikethis_e80ce4b3f8ef-db-table-nu_posts.table.gz (8/51): adding to final database dump
0024.200 (0) backup_2016-11-08-0153_Fitlikethis_e80ce4b3f8ef-db-table-nu_signups.table.gz (9/51): adding to final database dump
0024.202 (0) backup_2016-11-08-0153_Fitlikethis_e80ce4b3f8ef-db-table-nu_term_relationships.table.gz (10/51): adding to final database dump
0024.204 (0) backup_2016-11-08-0153_Fitlikethis_e80ce4b3f8ef-db-table-nu_term_taxonomy.table.gz (11/51): adding to final database dump
0024.206 (0) backup_2016-11-08-0153_Fitlikethis_e80ce4b3f8ef-db-table-nu_termmeta.table.gz (12/51): adding to final database dump
0024.208 (0) backup_2016-11-08-0153_Fitlikethis_e80ce4b3f8ef-db-table-nu_terms.table.gz (13/51): adding to final database dump
0024.210 (0) backup_2016-11-08-0153_Fitlikethis_e80ce4b3f8ef-db-table-nu_AnythingPopup.table.gz (14/51): adding to final database dump
0024.212 (0) backup_2016-11-08-0153_Fitlikethis_e80ce4b3f8ef-db-table-nu_customcalories.table.gz (15/51): adding to final database dump
0024.214 (0) backup_2016-11-08-0153_Fitlikethis_e80ce4b3f8ef-db-table-nu_custompro.table.gz (16/51): adding to final database dump
0024.216 (0) backup_2016-11-08-0153_Fitlikethis_e80ce4b3f8ef-db-table-nu_fep_messages.table.gz (17/51): adding to final database dump
0024.218 (0) backup_2016-11-08-0153_Fitlikethis_e80ce4b3f8ef-db-table-nu_fep_meta.table.gz (18/51): adding to final database dump
0024.220 (0) backup_2016-11-08-0153_Fitlikethis_e80ce4b3f8ef-db-table-nu_gf_addon_feed.table.gz (19/51): adding to final database dump
0024.222 (0) backup_2016-11-08-0153_Fitlikethis_e80ce4b3f8ef-db-table-nu_gf_addon_payment_callback.table.gz (20/51): adding to final database dump
0024.224 (0) backup_2016-11-08-0153_Fitlikethis_e80ce4b3f8ef-db-table-nu_gf_addon_payment_transaction.table.gz (21/51): adding to final database dump
0024.226 (0) backup_2016-11-08-0153_Fitlikethis_e80ce4b3f8ef-db-table-nu_ihc_coupons.table.gz (22/51): adding to final database dump
0024.228 (0) backup_2016-11-08-0153_Fitlikethis_e80ce4b3f8ef-db-table-nu_ihc_debug_payments.table.gz (23/51): adding to final database dump
0024.231 (0) backup_2016-11-08-0153_Fitlikethis_e80ce4b3f8ef-db-table-nu_ihc_notifications.table.gz (24/51): adding to final database dump
0024.233 (0) backup_2016-11-08-0153_Fitlikethis_e80ce4b3f8ef-db-table-nu_ihc_user_levels.table.gz (25/51): adding to final database dump
0024.235 (0) backup_2016-11-08-0153_Fitlikethis_e80ce4b3f8ef-db-table-nu_indeed_members_payments.table.gz (26/51): adding to final database dump
0024.237 (0) backup_2016-11-08-0153_Fitlikethis_e80ce4b3f8ef-db-table-nu_login_log.table.gz (27/51): adding to final database dump
0024.239 (0) backup_2016-11-08-0153_Fitlikethis_e80ce4b3f8ef-db-table-nu_payments.table.gz (28/51): adding to final database dump
0024.241 (0) backup_2016-11-08-0153_Fitlikethis_e80ce4b3f8ef-db-table-nu_pmpro_discount_codes.table.gz (29/51): adding to final database dump
0024.243 (0) backup_2016-11-08-0153_Fitlikethis_e80ce4b3f8ef-db-table-nu_pmpro_discount_codes_levels.table.gz (30/51): adding to final database dump
0024.245 (0) backup_2016-11-08-0153_Fitlikethis_e80ce4b3f8ef-db-table-nu_pmpro_discount_codes_uses.table.gz (31/51): adding to final database dump
0024.247 (0) backup_2016-11-08-0153_Fitlikethis_e80ce4b3f8ef-db-table-nu_pmpro_membership_levelmeta.table.gz (32/51): adding to final database dump
0024.249 (0) backup_2016-11-08-0153_Fitlikethis_e80ce4b3f8ef-db-table-nu_pmpro_membership_levels.table.gz (33/51): adding to final database dump
0024.251 (0) backup_2016-11-08-0153_Fitlikethis_e80ce4b3f8ef-db-table-nu_pmpro_membership_orders.table.gz (34/51): adding to final database dump
0024.254 (0) backup_2016-11-08-0153_Fitlikethis_e80ce4b3f8ef-db-table-nu_pmpro_memberships_categories.table.gz (35/51): adding to final database dump
0024.256 (0) backup_2016-11-08-0153_Fitlikethis_e80ce4b3f8ef-db-table-nu_pmpro_memberships_pages.table.gz (36/51): adding to final database dump
0024.258 (0) backup_2016-11-08-0153_Fitlikethis_e80ce4b3f8ef-db-table-nu_pmpro_memberships_users.table.gz (37/51): adding to final database dump
0024.260 (0) backup_2016-11-08-0153_Fitlikethis_e80ce4b3f8ef-db-table-nu_popover_ip_cache.table.gz (38/51): adding to final database dump
0024.262 (0) backup_2016-11-08-0153_Fitlikethis_e80ce4b3f8ef-db-table-nu_rg_form.table.gz (39/51): adding to final database dump
0024.264 (0) backup_2016-11-08-0153_Fitlikethis_e80ce4b3f8ef-db-table-nu_rg_form_meta.table.gz (40/51): adding to final database dump
0024.266 (0) backup_2016-11-08-0153_Fitlikethis_e80ce4b3f8ef-db-table-nu_rg_form_view.table.gz (41/51): adding to final database dump
0024.269 (0) backup_2016-11-08-0153_Fitlikethis_e80ce4b3f8ef-db-table-nu_rg_incomplete_submissions.table.gz (42/51): adding to final database dump
0024.271 (0) backup_2016-11-08-0153_Fitlikethis_e80ce4b3f8ef-db-table-nu_rg_lead.table.gz (43/51): adding to final database dump
0024.273 (0) backup_2016-11-08-0153_Fitlikethis_e80ce4b3f8ef-db-table-nu_rg_lead_detail.table.gz (44/51): adding to final database dump
0024.276 (0) backup_2016-11-08-0153_Fitlikethis_e80ce4b3f8ef-db-table-nu_rg_lead_detail_long.table.gz (45/51): adding to final database dump
0024.278 (0) backup_2016-11-08-0153_Fitlikethis_e80ce4b3f8ef-db-table-nu_rg_lead_meta.table.gz (46/51): adding to final database dump
0024.280 (0) backup_2016-11-08-0153_Fitlikethis_e80ce4b3f8ef-db-table-nu_rg_lead_notes.table.gz (47/51): adding to final database dump
0024.282 (0) backup_2016-11-08-0153_Fitlikethis_e80ce4b3f8ef-db-table-nu_rg_paypalpro.table.gz (48/51): adding to final database dump
0024.284 (0) backup_2016-11-08-0153_Fitlikethis_e80ce4b3f8ef-db-table-nu_rg_paypalpro_transaction.table.gz (49/51): adding to final database dump
0024.286 (0) backup_2016-11-08-0153_Fitlikethis_e80ce4b3f8ef-db-table-nu_social_users.table.gz (50/51): adding to final database dump
0024.288 (0) backup_2016-11-08-0153_Fitlikethis_e80ce4b3f8ef-db-table-nu_weight_tracker.table.gz (51/51): adding to final database dump
0024.290 (0) backup_2016-11-08-0153_Fitlikethis_e80ce4b3f8ef-db.gz: finished writing out complete database file (384 KB)
0024.298 (0) Total database tables backed up: 51 (backup_2016-11-08-0153_Fitlikethis_e80ce4b3f8ef-db.gz, size: 410975, checksum (SHA1): 92cac314691691311ac49762b37fcefbdf8e442e)
0024.306 (0) backup_2016-11-08-0153_Fitlikethis_e80ce4b3f8ef-plugins.zip: plugins: This file has not yet been successfully uploaded: will queue
0024.308 (0) backup_2016-11-08-0153_Fitlikethis_e80ce4b3f8ef-themes.zip: themes: This file has not yet been successfully uploaded: will queue
0024.309 (0) backup_2016-11-08-0153_Fitlikethis_e80ce4b3f8ef-uploads.zip: uploads: This file has not yet been successfully uploaded: will queue
0024.311 (0) backup_2016-11-08-0153_Fitlikethis_e80ce4b3f8ef-others.zip: others: This file has not yet been successfully uploaded: will queue
0024.312 (0) backup_2016-11-08-0153_Fitlikethis_e80ce4b3f8ef-db.gz: db: This file has not yet been successfully uploaded: will queue
0024.314 (0) Saving backup history. Total backup size: 144 MB
0024.318 (0) Requesting upload of the files that have not yet been successfully uploaded (5)
0024.322 (0) Cloud backup selection (1/1): none (last)
0024.324 (0) No remote despatch: user chose no remote backup service
0024.327 (0) Recording as successfully uploaded: backup_2016-11-08-0153_Fitlikethis_e80ce4b3f8ef-plugins.zip (14906fb62569f8c53e24424a053bfbe4)
0024.334 (0) Recording as successfully uploaded: backup_2016-11-08-0153_Fitlikethis_e80ce4b3f8ef-themes.zip (eb123121e02165e8e5215b4574d9d14b)
0024.341 (0) Recording as successfully uploaded: backup_2016-11-08-0153_Fitlikethis_e80ce4b3f8ef-uploads.zip (ae3226a8c1ebe149289f11ccec36061c)
0024.348 (0) Recording as successfully uploaded: backup_2016-11-08-0153_Fitlikethis_e80ce4b3f8ef-others.zip (eef92fc8f31126fea67feb995b54ba8f)
0024.354 (0) Recording as successfully uploaded: backup_2016-11-08-0153_Fitlikethis_e80ce4b3f8ef-db.gz (7e8646848c679f358ab6f485313805e5)
0024.363 (0) Retain: beginning examination of existing backup sets; user setting: retain_files=2, retain_db=2
0024.364 (0) Number of backup sets in history: 1; groups (db): 1
0024.366 (0) Examining (for databases) backup set with group_id=0, nonce=e80ce4b3f8ef, datestamp=1478550223 (Nov 07 2016 20:23:43)
0024.367 (0) This backup set is the backup set just made, so will not be deleted.
0024.368 (0) Number of backup sets in history: 1; groups (files): 1
0024.370 (0) Examining (for files) backup set with nonce=e80ce4b3f8ef, datestamp=1478550223 (Nov 07 2016 20:23:43)
0024.371 (0) This backup set is the backup set just made, so will not be deleted.
0024.373 (0) This backup set is the backup set just made, so will not be deleted.
0024.373 (0) This backup set is the backup set just made, so will not be deleted.
0024.374 (0) This backup set is the backup set just made, so will not be deleted.
0024.374 (0) This backup set remains non-empty (f=1/d=1); will retain in history
0024.375 (0) Retain: saving new backup history (sets now: 1) and finishing retain operation
0024.380 (0) Resume backup (e80ce4b3f8ef, 0): finish run
0024.384 (0) Decremented the semaphore (fd) by 1
0024.386 (0) Semaphore (fd) unlocked
0024.387 (0) There were no errors in the uploads, so the 'resume' event (1) is being unscheduled
0024.394 (0) No email will/can be sent - the user has not configured an email address.
0024.395 (0) The backup apparently succeeded and is now complete
